Eades Exam 3
…
What this shows us is the impact that the years since the time of the burn has on the concentration of these chemicals.

Number 5

## # A tibble: 24 x 5
##    term                         estimate std.error statistic  p.value
##    <chr>                           <dbl>     <dbl>     <dbl>    <dbl>
##  1 (Intercept)                    0.220      0.684    0.321  7.48e- 1
##  2 Chemical_IDalpha-cedrene      10.6        0.899   11.8    1.13e-29
##  3 Chemical_IDalpha-chamigrene    0.359      0.899    0.399  6.90e- 1
##  4 Chemical_IDalpha-eudesmol      0.594      0.899    0.661  5.09e- 1
##  5 Chemical_IDalpha-himachalene   0.0706     0.899    0.0785 9.37e- 1
##  6 Chemical_IDalpha-pinene        0.0235     0.899    0.0262 9.79e- 1
##  7 Chemical_IDalpha-terpineol     0.953      0.899    1.06   2.90e- 1
##  8 Chemical_IDbeta-acorenol       0.306      0.899    0.340  7.34e- 1
##  9 Chemical_IDbeta-cedrene        2.78       0.899    3.09   2.09e- 3
## 10 Chemical_IDbeta-chamigrene     0.706      0.899    0.785  4.33e- 1
## #  with 14 more rows
…
